0
0
0
1091
1165
1636
1928
2141
2158
2049
1945
1921
1995
2137
2268
2405
2565
2740
3128
3504
3708
4001
4301
4539
4663
4841
5330
5483
5437
5356
5399
5588
5845
6632
6896
7177
7450
7851
8391
9076
10175
11680
13229
14249
14605
14885
15581
16582
17795
18870
19715
20975
22348
23453
24978
26694
28675
30606
32168
33390
34639
36245
38133
39833
40968
41724
42288
42955
43685
44302
44598
44510
44112
43584
43171
43009
42877
42589
42009
41039
40190
39641
39359
39249
39021
38397
37511
36498
35563
34636
33551
32184
30689
29348
28281
27467
26719
25978
25235
24574
24028
23477
22833
22268
21779
21849
21978
22727
22785
22405
21703
20937
20246
19584
18995
18553
18388
18360
18248
17926
17437
16857
16278
15797
15405
15200
15113
15097
15076
14902
14590
14227
13745
13200
12611
12029
11516
11039
10556
9975
9322
8649
7982
7395
6847
6356
5923
5245
4379
4048
3516
3335
2969
2896
2845
2812
2788
2755
2710
2633
2526
2403
2255
2082
1929
1799
1681
1575
1480
1396
814
752
703
434
428
418
408
400
395
390
387
381
376
368
358
341
327
314
304
291
280
269
252
0
0
0
0
0
0
0
0
0
0
0
0
0
0
0
0
0
0
0
0
0
0
0
0
0
0
0
0
0
0
0
0
0
0
0
0
0
0
0
0
0
0
0
0
0
0
0
0
0
0
0
0
0
0
0
0
0
0
0
0
0
0
0
84.09
5605.58
