^E:\FACULTATE\AN 4\IOC\PROIECT\PROIECT\OPENCVAPPLICATION-VS2013_2413_BASIC_IOM\OPENCVAPPLICATION-VS2013_2413_BASIC_IOM\DEBUG\COLORCODE.OBJ|E:\FACULTATE\AN 4\IOC\PROIECT\PROIECT\OPENCVAPPLICATION-VS2013_2413_BASIC_IOM\OPENCVAPPLICATION-VS2013_2413_BASIC_IOM\DEBUG\COMMON.OBJ|E:\FACULTATE\AN 4\IOC\PROIECT\PROIECT\OPENCVAPPLICATION-VS2013_2413_BASIC_IOM\OPENCVAPPLICATION-VS2013_2413_BASIC_IOM\DEBUG\FUNCTIONS.OBJ|E:\FACULTATE\AN 4\IOC\PROIECT\PROIECT\OPENCVAPPLICATION-VS2013_2413_BASIC_IOM\OPENCVAPPLICATION-VS2013_2413_BASIC_IOM\DEBUG\OPENCVAPPLICATION.OBJ|E:\FACULTATE\AN 4\IOC\PROIECT\PROIECT\OPENCVAPPLICATION-VS2013_2413_BASIC_IOM\OPENCVAPPLICATION-VS2013_2413_BASIC_IOM\DEBUG\STDAFX.OBJ
E:\FACULTATE\AN 4\IOC\PROIECT\PROIECT\OPENCVAPPLICATION-VS2013_2413_BASIC_IOM\OPENCVAPPLICATION-VS2013_2413_BASIC_IOM\DEBUG\OPENCVAPPLICATION.ILK
E:\FACULTATE\AN 4\IOC\PROIECT\PROIECT\OPENCVAPPLICATION-VS2013_2413_BASIC_IOM\OPENCVAPPLICATION-VS2013_2413_BASIC_IOM\DEBUG\OPENCVAPPLICATION.EXE
E:\FACULTATE\AN 4\IOC\PROIECT\PROIECT\OPENCVAPPLICATION-VS2013_2413_BASIC_IOM\OPENCVAPPLICATION-VS2013_2413_BASIC_IOM\DEBUG\OPENCVAPPLICATION.PDB
